package rules.EventMessage.EventFired_dir
uses gw.acc.rsr.RSRMessageTransportPlugin
uses gw.acc.rsr.RSRUpdateMessageTransportPlugin

@gw.rules.RuleName("RSR")
internal class RSR {
  static function doCondition(messageContext : entity.MessageContext) : boolean {
/*start00rule*/
return messageContext.DestID == RSRMessageTransportPlugin.DESTINATION_ID
    || messageContext.DestID == RSRUpdateMessageTransportPlugin.DESTINATION_ID
/*end00rule*/
}

  static function doAction(messageContext : entity.MessageContext, actions : gw.rules.Action) {
/*start00rule*/

/*end00rule*/
  }
}
