package rules.EventMessage.EventFired_dir.RSR_dir

@gw.rules.RuleName("RSRListUpdate_Ext")
internal class RSRListUpdate_Ext {
  static function doCondition(messageContext : entity.MessageContext) : boolean {
/*start00rule*/
return messageContext.Root typeis RSRListUpdate_Ext
/*end00rule*/
}

  static function doAction(messageContext : entity.MessageContext, actions : gw.rules.Action) {
/*start00rule*/

/*end00rule*/
  }
}
